<svg xmlns="http://www.w3.org/2000/svg" width="74.75" height="61" viewBox="0 0 74.75 61">
  <g id="Group_4924" data-name="Group 4924" transform="translate(0.5 0.5)">
    <g id="Group_3460" data-name="Group 3460" transform="translate(0)">
      <rect id="Rectangle_20017" data-name="Rectangle 20017" width="73.75" height="60" fill="none" stroke="#ccc" stroke-width="1"/>
    </g>
    <g id="Group_3463" data-name="Group 3463" transform="translate(13 17)">
      <path id="Path_4672" data-name="Path 4672" d="M12431.141,1109.365l7.337-26.083,7.646,26.083" transform="translate(-12437.141 -1083.281)" fill="none" stroke="#707070" stroke-linecap="round" stroke-width="2"/>
      <path id="Path_4673" data-name="Path 4673" d="M12431.141,1109.365l7.337-26.083,7.646,26.083" transform="translate(-12421.954 -1083.281)" fill="none" stroke="#707070" stroke-linecap="round" stroke-width="2"/>
      <path id="Path_4674" data-name="Path 4674" d="M12431.141,1109.365l7.337-26.083,7.646,26.083" transform="translate(-12406.768 -1083.281)" fill="none" stroke="#707070" stroke-linecap="round" stroke-width="2"/>
      <path id="Path_4675" data-name="Path 4675" d="M12431.141,1109.365l7.337-26.083,7.646,26.083" transform="translate(-12391.581 -1083.281)" fill="none" stroke="#707070" stroke-linecap="round" stroke-width="2"/>
    </g>
  </g>
</svg>
